{
    "data": [
        {
            "DEPLOYMENT_ID": 1000,
            "DATE_ADDED": "06/01/2020",
            "BUSINESS_ORG": "IS&T",
            "PROPERTY": "GCS",
            "APPLICATION": null,
            "PROJECT_NAME": null,
            "LOCATION": null,
            "IS_POC": null,
            "DEPLOYMENT_TYPE": "Miscellaneous Request",
            "CUSTOMER_PRIORITY": "P3",
            "C19_CORE_PRIORITY": "P3",
            "BUSINESS_JUSTIFICATION": null,
            "IN_QUEUE_STATUS": "Submitted",
            "ESCALATION_STATUS": null,
            "PRIORITY_SET_DATE": null,
            "PRIORITY_SETTER": null,
            "IC_BUILD_NEEDED": null,
            "COMPLETED": "Y",
            "COMPLETED_DATE": "06/29/2020",
            "STATUS_NOTES": null,
            "CST_TICKET": "RITM000847590",
            "CST_TITLE": "ISTR |  RIR | R085 - Barton Creek (TX) | Onsite Date: June 12th",
            "IS_POC_DS_ID": null,
            "PROPERTY_POC": "Sofia Ferrer",
            "PROPERTY_POC_DS_ID": 2304701809,
            "TOMAHAWK_YES_NO": "N",
            "P0_P1_JUSTIFICATION": null,
            "P0_P1_DIRECTOR_EMAIL": null,
            "ESCALATED_BY": null,
            "ESCALATED_BY_DS_ID": null,
            "PRIORITY_SETTER_DS_ID": null,
            "EST_CUST_HAND_OFF_DATE": null,
            "DEPLOYMENT_STATUS": "Completed",
            "FORECAST_ID": null,
            "LAST_MODIFIED_BY": "1145746916",
            "PRIORITY_NOTES": null,
            "INTERNAL_NOTES": null,
            "CUSTOMER_VIS_NOTES": null,
            "RELATED_RECORDS": "RITM000733424 ||||| RITM000851289 ||||| RITM000866336",
            "TAGS": null,
            "LAST_MODIFIED_TIMESTAMP": "12/11/2020 13:59:31.210897",
            "CST_STATE": "Closed",
            "CST_STAGE": "Closed",
            "CST_OPENED_BY": "Sofia Ferrer",
            "CST_OPENED_BY_DS_ID": "2304701809",
            "ESCALATED_DATE": null,
            "OLD_NOTES": null,
            "SS_TASK_CLOSED_DATE": null,
            "DERIVED_HANDOVER_DATE": null,
            "CST_LATEST_COMMENTS": null,
            "CHECKPOINTS_JSON": "[{\"TITLE\":\"Ticket Creation\",\"STATUS\":\"Completed\"},{\"TITLE\":\"Work In Progress\",\"STATUS\":\"Completed\"},{\"TITLE\":\"Handover\",\"STATUS\":\"Closed\"}]",
            "ITRAC_INC": null,
            "CHECKPOINTS_DATE_JSON": "[{\"TITLE\":\"Ticket Creation\",\"COMPLETED_DATE\":\"2021-01-14T20:47:41.000Z\"},{\"TITLE\":\"Work In Progress\",\"COMPLETED_DATE\":\"2021-01-31T07:30:02.000Z\"},{\"TITLE\":\"Handover\",\"COMPLETED_DATE\":\"2021-01-31T07:30:02.000Z\"}]",
            "SAFE_ID": null,
            "IC_LOCATION": null,
            "ADBD_MATCH": "N",
            "DEVICE_COUNTS": null,
            "CABINET_COUNT": null,
            "LAST_MODIFIED_BY_SYSTEM": "update_gdcs_deployment_checkpoints_cron.php",
            "LAST_MODIFIED_SYS_TIMESTAMP": "01/30/2021 23:30:11.923379"
        },
        {
            "DEPLOYMENT_ID": 1008,
            "DATE_ADDED": "03/31/2020",
            "BUSINESS_ORG": "OTHER",
            "PROPERTY": "SEO",
            "APPLICATION": null,
            "PROJECT_NAME": "SEO EPQ Monolith Installation",
            "LOCATION": "Mesa",
            "IS_POC": null,
            "DEPLOYMENT_TYPE": "Data Center Deployment",
            "CUSTOMER_PRIORITY": "P2",
            "C19_CORE_PRIORITY": "P1",
            "BUSINESS_JUSTIFICATION": null,
            "IN_QUEUE_STATUS": "Priority Re-Set",
            "ESCALATION_STATUS": null,
            "PRIORITY_SET_DATE": "10/02/2020",
            "PRIORITY_SETTER": "Ethan Sarina",
            "IC_BUILD_NEEDED": null,
            "COMPLETED": "Y",
            "COMPLETED_DATE": "10/12/2020",
            "STATUS_NOTES": null,
            "CST_TICKET": "RITM000795614",
            "CST_TITLE": "We have a project to install 250 HP DL360 GEn10 Servers in Mesa.  We need to know how many server can be installed per Rack.",
            "IS_POC_DS_ID": null,
            "PROPERTY_POC": "Alex Alamillo",
            "PROPERTY_POC_DS_ID": 973602068,
            "TOMAHAWK_YES_NO": null,
            "P0_P1_JUSTIFICATION": null,
            "P0_P1_DIRECTOR_EMAIL": null,
            "ESCALATED_BY": null,
            "ESCALATED_BY_DS_ID": null,
            "PRIORITY_SETTER_DS_ID": "886916549",
            "EST_CUST_HAND_OFF_DATE": null,
            "DEPLOYMENT_STATUS": "Completed",
            "FORECAST_ID": "4179",
            "LAST_MODIFIED_BY": null,
            "PRIORITY_NOTES": null,
            "INTERNAL_NOTES": null,
            "CUSTOMER_VIS_NOTES": null,
            "RELATED_RECORDS": "WO000195596 ||||| WO000195505 ||||| WO000195597 ||||| WO000195598 ||||| RITM000827125 ||||| RITM000920610 ||||| RITM000928225",
            "TAGS": "#updated_from_quip",
            "LAST_MODIFIED_TIMESTAMP": null,
            "CST_STATE": "Closed",
            "CST_STAGE": "Closed",
            "CST_OPENED_BY": "Alex Alamillo",
            "CST_OPENED_BY_DS_ID": "973602068",
            "ESCALATED_DATE": null,
            "OLD_NOTES": "\n\n6/1: self-prioritized as P2, but unclear what the business impact / justification is for this deployment. ",
            "SS_TASK_CLOSED_DATE": "08/07/2020",
            "DERIVED_HANDOVER_DATE": "05/18/2020",
            "CST_LATEST_COMMENTS": "system: 2020-12-09T16:50:46.000Z: Comments from Catalog Task:\\n2020-12-09 08:50:44 - System (Additional comments)\\n\\nWork Order WO000195597 associated with this record is closed. Close Notes :\\n\\nWork Performed:\\r\\n- Reviewed ticket notes \\r\\n- Verified server SN,RFID, and Location \\r\\n- Verified that system was powered up and running correctly \\r\\n- Verified that no faulty hardware was physically visible \\r\\n\\r\\nNext Step:\\r\\n- Escalating back to workgroup for verification. \\r\\n\\r\\n**If faulty hardware becomes present again please assist in identifying the failed hardware needing replacement and provide serial number of failed device if possible. This will help to ensure the team is not manipulating good hardware and potential introducing new failures. **\\n\\n",
            "CHECKPOINTS_JSON": "[{\"TITLE\":\"Ticket Creation\",\"STATUS\":\"Completed\"},{\"TITLE\":\"Capacity Planning Approval\",\"STATUS\":\"Closed\"},{\"TITLE\":\"Integration Center\",\"STATUS\":\"Closed\"},{\"TITLE\":\"Install Hardware\",\"STATUS\":\"Closed\"},{\"TITLE\":\"Handover\",\"STATUS\":\"Closed\"}]",
            "ITRAC_INC": null,
            "CHECKPOINTS_DATE_JSON": "[{\"TITLE\":\"Ticket Creation\",\"COMPLETED_DATE\":\"2021-01-14T20:47:41.000Z\"},{\"TITLE\":\"Capacity Planning Approval\",\"COMPLETED_DATE\":\"2020-05-07T17:28:21.000Z\"},{\"TITLE\":\"Integration Center\",\"COMPLETED_DATE\":\"2020-10-12T21:00:16.000Z\"},{\"TITLE\":\"Install Hardware\",\"COMPLETED_DATE\":\"2020-08-07T22:11:42.000Z\"},{\"TITLE\":\"Handover\",\"COMPLETED_DATE\":\"2021-01-14T20:47:41.000Z\"}]",
            "SAFE_ID": null,
            "IC_LOCATION": null,
            "ADBD_MATCH": null,
            "DEVICE_COUNTS": null,
            "CABINET_COUNT": null,
            "LAST_MODIFIED_BY_SYSTEM": "update_gdcs_deployment_checkpoints_cron.php",
            "LAST_MODIFIED_SYS_TIMESTAMP": "01/14/2021 12:48:11.444405"
        },
        {
            "DEPLOYMENT_ID": 1009,
            "DATE_ADDED": "03/31/2020",
            "BUSINESS_ORG": null,
            "PROPERTY": null,
            "APPLICATION": null,
            "PROJECT_NAME": null,
            "LOCATION": null,
            "IS_POC": null,
            "DEPLOYMENT_TYPE": "Miscellaneous Request",
            "CUSTOMER_PRIORITY": "P1",
            "C19_CORE_PRIORITY": "P1",
            "BUSINESS_JUSTIFICATION": null,
            "IN_QUEUE_STATUS": "Priority Set",
            "ESCALATION_STATUS": null,
            "PRIORITY_SET_DATE": null,
            "PRIORITY_SETTER": "Jeff Felix",
            "IC_BUILD_NEEDED": "Y",
            "COMPLETED": null,
            "COMPLETED_DATE": "06/09/2020",
            "STATUS_NOTES": null,
            "CST_TICKET": "RITM000795405",
            "CST_TITLE": "IC FullFill | ISTR| [NSO] R271 Reston (NFV)- Onsite date 5/13/20",
            "IS_POC_DS_ID": null,
            "PROPERTY_POC": "Lekicia Kennedy",
            "PROPERTY_POC_DS_ID": 1105069488,
            "TOMAHAWK_YES_NO": null,
            "P0_P1_JUSTIFICATION": null,
            "P0_P1_DIRECTOR_EMAIL": null,
            "ESCALATED_BY": null,
            "ESCALATED_BY_DS_ID": null,
            "PRIORITY_SETTER_DS_ID": "1799868255",
            "EST_CUST_HAND_OFF_DATE": null,
            "DEPLOYMENT_STATUS": "Completed",
            "FORECAST_ID": null,
            "LAST_MODIFIED_BY": "1145746916",
            "PRIORITY_NOTES": null,
            "INTERNAL_NOTES": "973806631:2020-06-09 10:24:36:6/9: Cabinets have been delivered. ",
            "CUSTOMER_VIS_NOTES": "1145746916:2020-06-09 09:38:04:Please disregard previous comment. ||||| 1145746916:2020-06-09 09:37:38:WIP, still on track.",
            "RELATED_RECORDS": "RITM000854191 ||||| RITM000644644",
            "TAGS": "#updated_from_quip",
            "LAST_MODIFIED_TIMESTAMP": "06/16/2020 09:52:42.000000",
            "CST_STATE": "Completed",
            "CST_STAGE": "Acceptance",
            "CST_OPENED_BY": "Lekicia Kennedy",
            "CST_OPENED_BY_DS_ID": "1105069488",
            "ESCALATED_DATE": null,
            "OLD_NOTES": "5/26: Shipped on 5/20. Delivery ETA is 5/27\n\n5/18: No Change.\n\n5/11: IC Complete, Shipment delayed due to C19 complications at destination. \n\n5/5: IC Complete, Pending shipment\n\n\n\n",
            "SS_TASK_CLOSED_DATE": null,
            "DERIVED_HANDOVER_DATE": null,
            "CST_LATEST_COMMENTS": null,
            "CHECKPOINTS_JSON": "[{\"TITLE\":\"Ticket Creation\",\"STATUS\":\"Completed\"},{\"TITLE\":\"Work In Progress\",\"STATUS\":\"Completed\"},{\"TITLE\":\"Handover\",\"STATUS\":\"Closed\"}]",
            "ITRAC_INC": null,
            "CHECKPOINTS_DATE_JSON": "[{\"TITLE\":\"Ticket Creation\",\"COMPLETED_DATE\":\"2021-01-14T20:47:41.000Z\"},{\"TITLE\":\"Work In Progress\",\"COMPLETED_DATE\":\"2021-01-31T07:30:02.000Z\"},{\"TITLE\":\"Handover\",\"COMPLETED_DATE\":\"2021-01-31T07:30:02.000Z\"}]",
            "SAFE_ID": null,
            "IC_LOCATION": null,
            "ADBD_MATCH": null,
            "DEVICE_COUNTS": null,
            "CABINET_COUNT": null,
            "LAST_MODIFIED_BY_SYSTEM": "update_gdcs_deployment_checkpoints_cron.php",
            "LAST_MODIFIED_SYS_TIMESTAMP": "01/30/2021 23:30:33.344075"
        },
        {
            "DEPLOYMENT_ID": 1011,
            "DATE_ADDED": "03/17/2020",
            "BUSINESS_ORG": "R&D",
            "PROPERTY": "ECS",
            "APPLICATION": null,
            "PROJECT_NAME": "ECS Compute POC",
            "LOCATION": "Mesa",
            "IS_POC": null,
            "DEPLOYMENT_TYPE": "Data Center Deployment",
            "CUSTOMER_PRIORITY": "P3",
            "C19_CORE_PRIORITY": "P3",
            "BUSINESS_JUSTIFICATION": null,
            "IN_QUEUE_STATUS": "Submitted",
            "ESCALATION_STATUS": null,
            "PRIORITY_SET_DATE": null,
            "PRIORITY_SETTER": null,
            "IC_BUILD_NEEDED": null,
            "COMPLETED": "Y",
            "COMPLETED_DATE": "10/19/2020",
            "STATUS_NOTES": null,
            "CST_TICKET": "RITM000782647",
            "CST_TITLE": "ECS Compute POC in Mesa",
            "IS_POC_DS_ID": null,
            "PROPERTY_POC": "Grant (HWE) Miller",
            "PROPERTY_POC_DS_ID": 98863954,
            "TOMAHAWK_YES_NO": null,
            "P0_P1_JUSTIFICATION": null,
            "P0_P1_DIRECTOR_EMAIL": null,
            "ESCALATED_BY": null,
            "ESCALATED_BY_DS_ID": null,
            "PRIORITY_SETTER_DS_ID": null,
            "EST_CUST_HAND_OFF_DATE": null,
            "DEPLOYMENT_STATUS": "Completed",
            "FORECAST_ID": "4447",
            "LAST_MODIFIED_BY": null,
            "PRIORITY_NOTES": null,
            "INTERNAL_NOTES": null,
            "CUSTOMER_VIS_NOTES": null,
            "RELATED_RECORDS": null,
            "TAGS": null,
            "LAST_MODIFIED_TIMESTAMP": null,
            "CST_STATE": "Closed",
            "CST_STAGE": "Closed",
            "CST_OPENED_BY": "Grant (HWE) Miller",
            "CST_OPENED_BY_DS_ID": "98863954",
            "ESCALATED_DATE": null,
            "OLD_NOTES": null,
            "SS_TASK_CLOSED_DATE": "10/19/2020",
            "DERIVED_HANDOVER_DATE": "05/04/2020",
            "CST_LATEST_COMMENTS": "sumit_verma-1868964053: 2020-09-29T21:56:16.000Z: Comments from Catalog Task:\\n2020-09-29 14:56:15 - Sumit verma (Additional comments)\\nFYI. \\n\\nDevices also now removed from Unicorn.\\n\\n",
            "CHECKPOINTS_JSON": "[{\"TITLE\":\"Ticket Creation\",\"STATUS\":\"Completed\"},{\"TITLE\":\"Capacity Planning Approval\",\"STATUS\":\"Completed\"},{\"TITLE\":\"Integration Center\",\"STATUS\":\"Completed\"},{\"TITLE\":\"Install Hardware\",\"STATUS\":\"Completed\"},{\"TITLE\":\"Handover\",\"STATUS\":\"Completed\"}]",
            "ITRAC_INC": null,
            "CHECKPOINTS_DATE_JSON": null,
            "SAFE_ID": null,
            "IC_LOCATION": null,
            "ADBD_MATCH": null,
            "DEVICE_COUNTS": null,
            "CABINET_COUNT": null,
            "LAST_MODIFIED_BY_SYSTEM": "gdcs_deployment_main_cron.php",
            "LAST_MODIFIED_SYS_TIMESTAMP": "11/02/2020 09:10:08.474864"
        },
        {
            "DEPLOYMENT_ID": 1012,
            "DATE_ADDED": "12/18/2019",
            "BUSINESS_ORG": "IS&S",
            "PROPERTY": "iCloud",
            "APPLICATION": null,
            "PROJECT_NAME": "https://cst.apple.com/tkt.do?tkt=INC073751713 - [Child] Device Compute FY'20 Installations for Reno and Mesa  (US.MSC.02, 06-Dec-2019) - 12/5 DRC",
            "LOCATION": "Mesa",
            "IS_POC": null,
            "DEPLOYMENT_TYPE": "Data Center Deployment",
            "CUSTOMER_PRIORITY": "P2",
            "C19_CORE_PRIORITY": "P2",
            "BUSINESS_JUSTIFICATION": null,
            "IN_QUEUE_STATUS": "Priority Set",
            "ESCALATION_STATUS": null,
            "PRIORITY_SET_DATE": "05/21/2020",
            "PRIORITY_SETTER": "Jeff Felix",
            "IC_BUILD_NEEDED": "Y",
            "COMPLETED": null,
            "COMPLETED_DATE": null,
            "STATUS_NOTES": null,
            "CST_TICKET": "RITM000709313",
            "CST_TITLE": "DUE: 2020/05/22-INS-(178)-US.MSC.02.01.2100-Device Compute-83x Work Units---Integration Center",
            "IS_POC_DS_ID": null,
            "PROPERTY_POC": "David (ISO) Perez",
            "PROPERTY_POC_DS_ID": 973616532,
            "TOMAHAWK_YES_NO": null,
            "P0_P1_JUSTIFICATION": null,
            "P0_P1_DIRECTOR_EMAIL": null,
            "ESCALATED_BY": null,
            "ESCALATED_BY_DS_ID": null,
            "PRIORITY_SETTER_DS_ID": "1799868255",
            "EST_CUST_HAND_OFF_DATE": null,
            "DEPLOYMENT_STATUS": "Resources Unavailable: Hardware",
            "FORECAST_ID": "C14231",
            "LAST_MODIFIED_BY": null,
            "PRIORITY_NOTES": null,
            "INTERNAL_NOTES": "973622192:2020-08-17 10:20:28:8/17: No change. Awaiting for hardware for the next two stages. ||||| 973622192:2020-08-11 16:59:56:8/11: No change. ||||| 973622192:2020-08-03 13:39:49:8/3. This task is for 5 stages. Stage 3 ETC was set for 8/5 and is now complete. Awaiting for hardware for the next two stages. Marking the ETC for this as TBD. ||||| 973806631:2020-07-27 11:53:06:7/27: WIP- on track. Cabinets expected to arrive on 7/27 from IC. Expecting to hand this over to network on 7/29. ISO should be able to hand this off to their customer by 8/5. Setting ETC as 8/5. ||||| 973622192:2020-07-17 13:24:56:7/17 New Update* Cabinets expected to arrive on 7/27 from IC. Expecting to hand this over to network on 7/29. ISO should be able to hand this off to their customer by 8/5. Setting ETC as 8/5. ||||| 973622192:2020-07-17 13:03:10:7/17 Still no change: Pending phase 3 cabinets from IC. No ETA for phase 3 cabinets. ||||| 973622192:2020-07-13 10:17:15:7/13: Still no change: Pending phase 3 cabinets from IC. No ETA for phase 3 cabinets. ||||| 973622192:2020-07-06 14:13:37:7/6: No change. ||||| 973622192:2020-06-29 12:23:55:6/29: No change. ETC was 6/10, changing this to TBD. Awaiting on IC. ||||| 973806631:2020-06-22 05:03:17:6/19: Phase 1 and 2 complete, pending phase 3 cabinets from IC. No ETA for phase 3 cabinets. ||||| 973622192:2020-06-12 10:17:02:6/12: Awaiting for last set of cabinets to arrive from IC. The site to reach out to IC for a delivery date. ||||| 973622192:2020-06-12 10:15:56:6/12 Correction* This is still WIP ||||| 973622192:2020-06-05 13:42:15:6/5: SS work was complete on 6/3. Need to wait until David Perez confirms as handed off to customer.",
            "CUSTOMER_VIS_NOTES": "1145746916:2020-08-18 08:52:52:8/18: No change. Awaiting for hardware for the next two stages. ||||| 1145746916:2020-08-12 09:46:24:8/11: No change. ||||| 1145746916:2020-08-04 06:46:52:8/4. This task is for 5 stages. Stage 3 ETC was set for 8/5 and is now complete. Awaiting for hardware for the next two stages. Marking the ETC for this as TBD. ||||| 1145746916:2020-07-28 11:05:48:7/28: WIP- on track. Cabinets expected to arrive on 7/27 from IC. Expecting to hand this over to network on 7/29. ISO should be able to hand this off to their customer by 8/5. Setting ETC as 8/5. ||||| 1145746916:2020-07-21 12:33:37:7/21: Cabinets expected to arrive on 7/27 from IC. Expecting to hand this over to network on 7/29. ISO should be able to hand this off to their customer by 8/5. Setting ETC as 8/5. ||||| 1145746916:2020-07-14 08:46:36:7/14: Still no change: Pending phase 3 cabinets from IC. No ETA for phase 3 cabinets. ||||| 1145746916:2020-07-07 10:45:37:7/7: Phase 1 and 2 complete, pending phase 3 cabinets from IC. No ETA for phase 3 cabinets. ||||| 1145746916:2020-06-30 13:26:03:6/30: No change. ETC was 6/10, changing this to TBD. Awaiting on IC. ||||| 1145746916:2020-06-23 12:33:27:6/23: Phase 1 and 2 complete, pending phase 3 cabinets from IC. No ETA for phase 3 cabinets. ||||| 1145746916:2020-06-16 10:47:33:6/16: Awaiting for last set of cabinets to arrive from IC. The site to reach out to IC for a delivery date. ||||| 1145746916:2020-06-09 12:14:17:6/9: SS work was complete on 6/3. Need to wait until David Perez confirms as handed off to customer.",
            "RELATED_RECORDS": "INC073751713 ||||| RITM000849058 ||||| RITM000710393 ||||| RITM000742596",
            "TAGS": "#updated_from_quip",
            "LAST_MODIFIED_TIMESTAMP": null,
            "CST_STATE": "Work in Progress",
            "CST_STAGE": "Fulfillment",
            "CST_OPENED_BY": "David (ISO) Perez",
            "CST_OPENED_BY_DS_ID": "973616532",
            "ESCALATED_DATE": null,
            "OLD_NOTES": "5/29: WIP - on schedule\n\n5/22: Cabinets being delivered on 6/1. DCO hand off is 6/2.\n\n\n5/20 - EL - Raised by Mignonne and David as P2 today. Was assigned as a P3 as default for customer, changed to P2.",
            "SS_TASK_CLOSED_DATE": null,
            "DERIVED_HANDOVER_DATE": "02/04/2020",
            "CST_LATEST_COMMENTS": "sumit_verma-1868964053: 2021-01-15T20:09:02.000Z: Comments from Catalog Task:\\n2021-01-15 12:09:01 - Sumit verma (Additional comments)\\nHi Jarrod Hamm,\\n\\nCould you please update the Console information of TORs in ADB similar to console info format of OOB say :\\n\\nusmsc22-2100-24-34-tri1-edg-gw1 = usmsc22-2100-24-24-oob-cs1-p36\\nusmsc22-2100-24-35-tri1-edg-gw1 = usmsc22-2100-24-24-oob-cs1-p37\\n\\n",
            "CHECKPOINTS_JSON": "[{\"TITLE\":\"Ticket Creation\",\"STATUS\":\"Completed\"},{\"TITLE\":\"Capacity Planning Approval\",\"STATUS\":\"Completed\"},{\"TITLE\":\"Integration Center\",\"STATUS\":\"Work in Progress\"},{\"TITLE\":\"Install Hardware\",\"STATUS\":\"Completed\"},{\"TITLE\":\"Handover\",\"STATUS\":\"\"}]",
            "ITRAC_INC": "INC073751713",
            "CHECKPOINTS_DATE_JSON": "[{\"TITLE\":\"Ticket Creation\",\"COMPLETED_DATE\":null},{\"TITLE\":\"Capacity Planning Approval\",\"COMPLETED_DATE\":\"2019-12-19T16:32:56.000Z\"},{\"TITLE\":\"Integration Center\",\"COMPLETED_DATE\":\"\"},{\"TITLE\":\"Install Hardware\",\"COMPLETED_DATE\":\"2021-03-23T14:20:53.000Z\"},{\"TITLE\":\"Handover\",\"COMPLETED_DATE\":\"\"}]",
            "SAFE_ID": null,
            "IC_LOCATION": null,
            "ADBD_MATCH": null,
            "DEVICE_COUNTS": 178,
            "CABINET_COUNT": "6",
            "LAST_MODIFIED_BY_SYSTEM": "gdcs_deployment_main_cron.php",
            "LAST_MODIFIED_SYS_TIMESTAMP": "04/28/2021 13:10:46.899977"
        },
        {
            "DEPLOYMENT_ID": 1031,
            "DATE_ADDED": "06/01/2020",
            "BUSINESS_ORG": "IS&S",
            "PROPERTY": "iTunes",
            "APPLICATION": null,
            "PROJECT_NAME": "Reno - iTunes - Cohort Vertica Database",
            "LOCATION": "Maiden",
            "IS_POC": null,
            "DEPLOYMENT_TYPE": "Data Center Deployment",
            "CUSTOMER_PRIORITY": "P3",
            "C19_CORE_PRIORITY": "P3",
            "BUSINESS_JUSTIFICATION": null,
            "IN_QUEUE_STATUS": "Submitted",
            "ESCALATION_STATUS": null,
            "PRIORITY_SET_DATE": null,
            "PRIORITY_SETTER": null,
            "IC_BUILD_NEEDED": null,
            "COMPLETED": "Y",
            "COMPLETED_DATE": "06/09/2020",
            "STATUS_NOTES": null,
            "CST_TICKET": "RITM000847318",
            "CST_TITLE": "DUE: 2020/06/04-INS-(1)-US.MDN.04.01.2000-iTunes-Cohort Bulder - Private Switch",
            "IS_POC_DS_ID": null,
            "PROPERTY_POC": "Ethan Sarina",
            "PROPERTY_POC_DS_ID": 886916549,
            "TOMAHAWK_YES_NO": null,
            "P0_P1_JUSTIFICATION": null,
            "P0_P1_DIRECTOR_EMAIL": null,
            "ESCALATED_BY": null,
            "ESCALATED_BY_DS_ID": null,
            "PRIORITY_SETTER_DS_ID": null,
            "EST_CUST_HAND_OFF_DATE": null,
            "DEPLOYMENT_STATUS": "Completed",
            "FORECAST_ID": "P12345",
            "LAST_MODIFIED_BY": "1145746916",
            "PRIORITY_NOTES": null,
            "INTERNAL_NOTES": null,
            "CUSTOMER_VIS_NOTES": null,
            "RELATED_RECORDS": "RITM000847296",
            "TAGS": null,
            "LAST_MODIFIED_TIMESTAMP": "06/17/2020 13:08:00.000000",
            "CST_STATE": "Closed",
            "CST_STAGE": "Closed",
            "CST_OPENED_BY": "Ethan Sarina",
            "CST_OPENED_BY_DS_ID": "886916549",
            "ESCALATED_DATE": null,
            "OLD_NOTES": null,
            "SS_TASK_CLOSED_DATE": null,
            "DERIVED_HANDOVER_DATE": "07/19/2020",
            "CST_LATEST_COMMENTS": null,
            "CHECKPOINTS_JSON": "[{\"TITLE\":\"Ticket Creation\",\"STATUS\":\"Completed\"},{\"TITLE\":\"Capacity Planning Approval\",\"STATUS\":\"Closed\"},{\"TITLE\":\"Install Hardware\",\"STATUS\":\"\"},{\"TITLE\":\"Handover\",\"STATUS\":\"Closed\"}]",
            "ITRAC_INC": null,
            "CHECKPOINTS_DATE_JSON": "[{\"TITLE\":\"Ticket Creation\",\"COMPLETED_DATE\":\"2021-01-14T20:47:41.000Z\"},{\"TITLE\":\"Capacity Planning Approval\",\"COMPLETED_DATE\":\"2020-06-01T19:18:43.000Z\"},{\"TITLE\":\"Install Hardware\",\"COMPLETED_DATE\":null},{\"TITLE\":\"Handover\",\"COMPLETED_DATE\":\"2021-01-31T07:30:02.000Z\"}]",
            "SAFE_ID": null,
            "IC_LOCATION": null,
            "ADBD_MATCH": null,
            "DEVICE_COUNTS": null,
            "CABINET_COUNT": null,
            "LAST_MODIFIED_BY_SYSTEM": "update_gdcs_deployment_checkpoints_cron.php",
            "LAST_MODIFIED_SYS_TIMESTAMP": "01/30/2021 23:30:14.342895"
        }
],
    "recordsFiltered": 20104
}
